{
  "first": true,
  "last": false,
  "size": 10,
  "totalElements": 14,
  "totalPages": 2,
  "number": 0,
  "contents": [
    {
      "id": 4,
      "amount": 230.0,
      "category": {
        "id": 5,
        "name": "Veicoli",
        "description": "Veicoli",
        "isReadOnly": true
      },
      "executedAt": "2019-08-30T15:45:29.521Z"
    },
    {
      "id": 5,
      "amount": 105.0,
      "category": {
        "id": 4,
        "name": "Trasporti",
        "description": "Trasporti",
        "isReadOnly": true
      },
      "executedAt": "2019-08-28T15:45:49.536Z"
    },
    {
      "id": 7,
      "amount": 120.0,
      "category": {
        "id": 3,
        "name": "Casa",
        "description": "Casa",
        "isReadOnly": true
      },
      "executedAt": "2019-08-27T15:46:27.56Z"
    },
    {
      "id": 6,
      "amount": 100.0,
      "category": {
        "id": 2,
        "name": "Shopping",
        "description": "Shopping",
        "isReadOnly": true
      },
      "executedAt": "2019-08-27T15:46:07.355Z"
    },
    {
      "id": 9,
      "amount": 87.5,
      "category": {
        "id": 2,
        "name": "Shopping",
        "description": "Shopping",
        "isReadOnly": true
      },
      "executedAt": "2019-08-26T15:47:05.754Z"
    },
    {
      "id": 8,
      "amount": 54.0,
      "category": {
        "id": 6,
        "name": "Intrattenimento",
        "description": "Intrattenimento",
        "isReadOnly": true
      },
      "executedAt": "2019-08-26T15:46:47.421Z"
    },
    {
      "id": 10,
      "amount": 180.0,
      "category": {
        "id": 1,
        "name": "Cibo & Bevande",
        "description": "Cibo & Bevande",
        "isReadOnly": true
      },
      "executedAt": "2019-08-24T15:47:23.488Z"
    },
    {
      "id": 11,
      "amount": 20.0,
      "category": {
        "id": 1,
        "name": "Cibo & Bevande",
        "description": "Cibo & Bevande",
        "isReadOnly": true
      },
      "executedAt": "2019-08-18T15:47:41.454Z"
    },
    {
      "id": 12,
      "amount": 47.0,
      "category": {
        "id": 6,
        "name": "Intrattenimento",
        "description": "Intrattenimento",
        "isReadOnly": true
      },
      "executedAt": "2019-08-16T15:48:01.179Z"
    },
    {
      "id": 13,
      "amount": 59.0,
      "category": {
        "id": 2,
        "name": "Shopping",
        "description": "Shopping",
        "isReadOnly": true
      },
      "executedAt": "2019-08-14T15:48:19.771Z"
    }
  ]
}